{
  "id": "f0043cdb-1b74-9060-266c-cc4462008d18",
  "name": "1-Sage-Cert Account-updater-v2",
  "values": [
    {
      "enabled": true,
      "key": "HOST",
      "value": "https://api-cert.sagepayments.com",
      "type": "text"
    },
    {
      "enabled": true,
      "key": "BASICAUTH",
      "value": "a2thbmFza2llQGFwaWdlZS5jb206RnVmZnkyMCE2",
      "type": "text"
    },
    {
      "enabled": true,
      "key": "ORG",
      "value": "sage",
      "type": "text"
    },
    {
      "enabled": true,
      "key": "ENV",
      "value": "cert",
      "type": "text"
    },
    {
      "enabled": true,
      "key": "MGMTSVR",
      "value": "https://api.enterprise.apigee.com",
      "type": "text"
    },
    {
      "enabled": true,
      "key": "clientId",
      "value": "QAYEWMGah32YPYtNATKSEAfybEoNVRJL",
      "type": "text"
    },
    {
      "enabled": true,
      "key": "clientSecret",
      "value": "246Ly5PzOfIoE3uo",
      "type": "text"
    },
    {
      "enabled": true,
      "key": "merchantId",
      "value": "153862020565",
      "type": "text"
    },
    {
      "enabled": true,
      "key": "merchantKey",
      "value": "E6C7T7D7H8B7",
      "type": "text"
    },
    {
      "enabled": true,
      "key": "saleRef",
      "value": "undefined",
      "type": "text"
    },
    {
      "enabled": true,
      "key": "timestamp",
      "value": "1508786553",
      "type": "text"
    },
    {
      "enabled": true,
      "key": "nonce",
      "value": "1508786552939",
      "type": "text"
    },
    {
      "enabled": true,
      "key": "USER",
      "value": "",
      "type": "text"
    },
    {
      "enabled": true,
      "key": "HMAC",
      "value": "qDlip+O6P7eiC2Htqsvt61Q8aw8qUqJsV+Ug2c07JCcY7a+Y6t4Y1X/jXYTIsrhUOWFZfo4GKS68PG9OwAUkIA==",
      "type": "text"
    }
  ],
  "timestamp": 1508786552985,
  "_postman_variable_scope": "environment",
  "_postman_exported_at": "2017-10-23T19:25:45.110Z",
  "_postman_exported_using": "Postman/5.3.1"
}